What's the fastest way to search and replace strings in a data frame?
…
adult_colnames <- readLines(
  "https://archive.ics.uci.edu/ml/machine-learning-databases/adult/adult.names"
)

adult_colnames <- adult_colnames[97:110] %>%
  str_extract(".*(?=:)") %>%
  str_replace_all("-", "_")

adult_colnames <- c(adult_colnames, "wage")

colnames(adult) <- adult_colnames

adult

## # A tibble: 32,560 × 15
##      age workclass    fnlwgt educa…¹ educa…² marit…³ occup…⁴ relat…⁵ race  sex  
##    <dbl> <chr>         <dbl> <chr>     <dbl> <chr>   <chr>   <chr>   <chr> <chr>
##  1    50 Self-emp-no…  83311 Bachel…      13 Marrie… Exec-m… Husband White Male 
##  2    38 Private      215646 HS-grad       9 Divorc… Handle… Not-in… White Male 
##  3    53 Private      234721 11th          7 Marrie… Handle… Husband Black Male 
##  4    28 Private      338409 Bachel…      13 Marrie… Prof-s… Wife    Black Fema…
##  5    37 Private      284582 Masters      14 Marrie… Exec-m… Wife    White Fema…
##  6    49 Private      160187 9th           5 Marrie… Other-… Not-in… Black Fema…
##  7    52 Self-emp-no… 209642 HS-grad       9 Marrie… Exec-m… Husband White Male 
##  8    31 Private       45781 Masters      14 Never-… Prof-s… Not-in… White Fema…
##  9    42 Private      159449 Bachel…      13 Marrie… Exec-m… Husband White Male 
## 10    37 Private      280464 Some-c…      10 Marrie… Exec-m… Husband Black Male 
## # … with 32,550 more rows, 5 more variables: capital_gain <dbl>,
## #   capital_loss <dbl>, hours_per_week <dbl>, native_country <chr>, wage <chr>,
## #   and abbreviated variable names ¹​education, ²​education_num, ³​marital_status,
## #   ⁴​occupation, ⁵​relationship
## # ℹ Use `print(n = ...)` to see more rows, and `colnames()` to see all variable names
…
