Analyzing NetHack data, part 2: What players kill the most - Econometrics and Free Software
…
I can now easily add this info to my data:

nethack %<>%
  mutate(monsters_destroyed = map(dumplog, ~possibly(extract_defeated_monsters, otherwise = NA)(.)))

Let’s take a look at one of them:

nethack$monsters_destroyed[[117]]

## # A tibble: 285 x 3
##    value monster              status
##    <dbl> <chr>                <chr> 
##  1     1 baalzebub            <NA>  
##  2     1 orcu                 <NA>  
##  3     1 juiblex              <NA>  
##  4     4 the wizard of yendor <NA>  
##  5     3 pestilence           <NA>  
##  6     1 famine               <NA>  
##  7     1 vlad the impaler     <NA>  
##  8     4 arch-lich            <NA>  
##  9     1 high priest          <NA>  
## 10     1 medusa               <NA>  
## # ... with 275 more rows
…
