Searching for the optimal hyper-parameters of an ARIMA model in parallel: the tidy gridsearch approach - Econometrics and Free Software
…
Now, I can finally select the best performing model. I select the model with minimum RMSE:

best_model <- models_df %>%
    filter(rmse == min(rmse, na.rm = TRUE))

And save the forecast into a new variable, as a tibble, using my to_tibble() function:

(best_model_forecast <- to_tibble(best_model$forecast[[1]]))

## Joining, by = "date"
## Joining, by = "date"

## # A tsibble: 39 x 6 [1M]
##        date point_estimate upper80 upper95 lower80 lower95
##       <mth>          <dbl>   <dbl>   <dbl>   <dbl>   <dbl>
##  1 2015 Jan           11.9    12.1    12.1    11.8    11.7
##  2 2015 Feb           11.9    12.0    12.1    11.7    11.6
##  3 2015 Mar           12.1    12.3    12.3    11.9    11.9
##  4 2015 Apr           12.2    12.3    12.4    12.0    11.9
##  5 2015 May           12.2    12.4    12.5    12.1    12.0
##  6 2015 Jun           12.3    12.4    12.5    12.1    12.0
##  7 2015 Jul           12.2    12.3    12.4    12.0    11.9
##  8 2015 Aug           12.3    12.5    12.6    12.2    12.1
##  9 2015 Sep           12.3    12.5    12.6    12.2    12.1
## 10 2015 Oct           12.2    12.4    12.5    12.1    12.0
## # … with 29 more rows
…
