…
First, let’s split the training data again, using the mc_cv() function from {rsample} package.
This function implements Monte Carlo cross-validation:

validation_data <- mc_cv(housing_train, prop = 0.9, times = 30)

What does validation_data look like?

validation_data

## # # Monte Carlo cross-validation (0.9/0.1) with 30 resamples  
## # A tibble: 30 x 2
##    splits       id        
##    <list>       <chr>     
##  1 <S3: rsplit> Resample01
##  2 <S3: rsplit> Resample02
##  3 <S3: rsplit> Resample03
##  4 <S3: rsplit> Resample04
##  5 <S3: rsplit> Resample05
##  6 <S3: rsplit> Resample06
##  7 <S3: rsplit> Resample07
##  8 <S3: rsplit> Resample08
##  9 <S3: rsplit> Resample09
## 10 <S3: rsplit> Resample10
## # ... with 20 more rows
…
