…
Finally, it is also possible to bootstrap the standard errors. For this I will use the
bootstrap() function from the {modelr} package:

resamples <- 100

boot_education <- education %>% 
 modelr::bootstrap(resamples)

Let’s take a look at the boot_education object:

boot_education

## # A tibble: 100 x 2
##    strap          .id  
##    <list>         <chr>
##  1 <S3: resample> 001  
##  2 <S3: resample> 002  
##  3 <S3: resample> 003  
##  4 <S3: resample> 004  
##  5 <S3: resample> 005  
##  6 <S3: resample> 006  
##  7 <S3: resample> 007  
##  8 <S3: resample> 008  
##  9 <S3: resample> 009  
## 10 <S3: resample> 010  
## # … with 90 more rows

The column strap contains resamples of the original data. I will run my linear regression
from before on each of the resamples:

(
    boot_lin_reg <- boot_education %>% 
        mutate(regressions = 
                   map(strap, 
                       ~lm(per_capita_exp ~ region + residents + 
                               young_residents + per_capita_income, 
                           data = .))) 
)

## # A tibble: 100 x 3
##    strap          .id   regressions
##    <list>         <chr> <list>     
##  1 <S3: resample> 001   <S3: lm>   
##  2 <S3: resample> 002   <S3: lm>   
##  3 <S3: resample> 003   <S3: lm>   
##  4 <S3: resample> 004   <S3: lm>   
##  5 <S3: resample> 005   <S3: lm>   
##  6 <S3: resample> 006   <S3: lm>   
##  7 <S3: resample> 007   <S3: lm>   
##  8 <S3: resample> 008   <S3: lm>   
##  9 <S3: resample> 009   <S3: lm>   
## 10 <S3: resample> 010   <S3: lm>   
## # … with 90 more rows

I have added a new column called regressions which contains the linear regressions on each
bootstrapped sample. Now, I will create a list of tidied regression results:

(
    tidied <- boot_lin_reg %>% 
        mutate(tidy_lm = 
                   map(regressions, broom::tidy))
)

## # A tibble: 100 x 4
##    strap          .id   regressions tidy_lm         
##    <list>         <chr> <list>      <list>          
##  1 <S3: resample> 001   <S3: lm>    <tibble [7 × 5]>
##  2 <S3: resample> 002   <S3: lm>    <tibble [7 × 5]>
##  3 <S3: resample> 003   <S3: lm>    <tibble [7 × 5]>
##  4 <S3: resample> 004   <S3: lm>    <tibble [7 × 5]>
##  5 <S3: resample> 005   <S3: lm>    <tibble [7 × 5]>
##  6 <S3: resample> 006   <S3: lm>    <tibble [7 × 5]>
##  7 <S3: resample> 007   <S3: lm>    <tibble [7 × 5]>
##  8 <S3: resample> 008   <S3: lm>    <tibble [7 × 5]>
##  9 <S3: resample> 009   <S3: lm>    <tibble [7 × 5]>
## 10 <S3: resample> 010   <S3: lm>    <tibble [7 × 5]>
## # … with 90 more rows
…
list_mods <- tidied %>% 
    pull(tidy_lm)

list_mods is a list of the tidy_lm data frames. I now add an index and
bind the rows together (by using map2_df() instead of map2()):

mods_df <- map2_df(list_mods, 
                   seq(1, resamples), 
                   ~mutate(.x, resample = .y))

Let’s take a look at the final object:

head(mods_df, 25)

## # A tibble: 25 x 6
##    term               estimate std.error statistic      p.value resample
##    <chr>                 <dbl>     <dbl>     <dbl>        <dbl>    <int>
##  1 (Intercept)       -668.      148.         -4.51 0.0000501           1
##  2 regionnortheast     37.6      19.9         1.89 0.0651              1
##  3 regionsouth         45.8      18.2         2.51 0.0158              1
##  4 regionwest          58.3      17.4         3.36 0.00166             1
##  5 residents           -0.0736    0.0574     -1.28 0.207               1
##  6 young_residents      1.57      0.389       4.04 0.000216            1
##  7 per_capita_income    0.0955    0.0144      6.63 0.0000000450        1
##  8 (Intercept)       -794.      149.         -5.32 0.00000355          2
##  9 regionnortheast     41.9      18.8         2.22 0.0316              2
## 10 regionsouth         39.9      18.0         2.22 0.0318              2
## # … with 15 more rows
…
