Looking into 19th century ads from a Luxembourguish newspaper with R
…
This function takes the path to a page as argument, and returns a tibble with the two columns: one
containing the words, which I called tokens and the second the name of the document this word
was found. I uploaded on .xml file
here
so that you can try the function yourself. The difficult part is str_extract("(?<=CONTENT)(.*?)(?=WC)")
which is were the words inside the “CONTENT” tag get extracted.

I then map this function to all the pages, and get a nice tibble with all the words:

ad_words <- map_dfr(ad_pages, get_words)

ad_words

## # A tibble: 1,114,662 x 2
##    tokens     page                            
##    <chr>      <chr>                           
##  1 afin       1877-01-05_01/text/1877-01-05_01
##  2 de         1877-01-05_01/text/1877-01-05_01
##  3 mettre     1877-01-05_01/text/1877-01-05_01
##  4 mes        1877-01-05_01/text/1877-01-05_01
##  5 honorables 1877-01-05_01/text/1877-01-05_01
##  6 clients    1877-01-05_01/text/1877-01-05_01
##  7 à          1877-01-05_01/text/1877-01-05_01
##  8 même       1877-01-05_01/text/1877-01-05_01
##  9 d          1877-01-05_01/text/1877-01-05_01
## 10 avantages  1877-01-05_01/text/1877-01-05_01
## # … with 1,114,652 more rows
…
