Using the tidyverse for more than data manipulation: estimating pi with Monte Carlo methods - Econometrics and Free Software
…
Now, to know if a point is inside the unit circle, we need to check wether \(x^2 + y^2 < 1\). Let’s
add a new column to the points tibble, called inside equal to 1 if the point is inside the
unit circle and 0 if not:

points <- points %>% 
    mutate(inside = map2_dbl(.x = x, .y = y, ~ifelse(.x**2 + .y**2 < 1, 1, 0))) %>% 
    rowid_to_column("N")

Let’s take a look at points:

points

## # A tibble: 5,000 x 4
##        N       x      y inside
##    <int>   <dbl>  <dbl>  <dbl>
##  1     1 0.770   0.984       0
##  2     2 0.713   0.0107      1
##  3     3 0.303   0.133       1
##  4     4 0.618   0.0378      1
##  5     5 0.0505  0.677       1
##  6     6 0.0432  0.0846      1
##  7     7 0.820   0.727       0
##  8     8 0.00961 0.0758      1
##  9     9 0.102   0.373       1
## 10    10 0.609   0.676       1
## # … with 4,990 more rows
…
