Dealing with heteroskedasticity; regression with robust standard errors using R - Econometrics and Free Software
…
Finally, it is also possible to bootstrap the standard errors. For this I will use the
bootstrap() function from the {modelr} package:

resamples <- 100

boot_education <- education %>% 
 modelr::bootstrap(resamples)

Let’s take a look at the boot_education object:

boot_education

## # A tibble: 100 x 2
##    strap      .id  
##    <list>     <chr>
##  1 <resample> 001  
##  2 <resample> 002  
##  3 <resample> 003  
##  4 <resample> 004  
##  5 <resample> 005  
##  6 <resample> 006  
##  7 <resample> 007  
##  8 <resample> 008  
##  9 <resample> 009  
## 10 <resample> 010  
## # … with 90 more rows

The column strap contains resamples of the original data. I will run my linear regression
from before on each of the resamples:

(
    boot_lin_reg <- boot_education %>% 
        mutate(regressions = 
                   map(strap, 
                       ~lm(per_capita_exp ~ region + residents + 
                               young_residents + per_capita_income, 
                           data = .))) 
)

## # A tibble: 100 x 3
##    strap      .id   regressions
##    <list>     <chr> <list>     
##  1 <resample> 001   <lm>       
##  2 <resample> 002   <lm>       
##  3 <resample> 003   <lm>       
##  4 <resample> 004   <lm>       
##  5 <resample> 005   <lm>       
##  6 <resample> 006   <lm>       
##  7 <resample> 007   <lm>       
##  8 <resample> 008   <lm>       
##  9 <resample> 009   <lm>       
## 10 <resample> 010   <lm>       
## # … with 90 more rows

I have added a new column called regressions which contains the linear regressions on each
bootstrapped sample. Now, I will create a list of tidied regression results:

(
    tidied <- boot_lin_reg %>% 
        mutate(tidy_lm = 
                   map(regressions, broom::tidy))
)

## # A tibble: 100 x 4
##    strap      .id   regressions tidy_lm         
##    <list>     <chr> <list>      <list>          
##  1 <resample> 001   <lm>        <tibble [7 × 5]>
##  2 <resample> 002   <lm>        <tibble [7 × 5]>
##  3 <resample> 003   <lm>        <tibble [7 × 5]>
##  4 <resample> 004   <lm>        <tibble [7 × 5]>
##  5 <resample> 005   <lm>        <tibble [7 × 5]>
##  6 <resample> 006   <lm>        <tibble [7 × 5]>
##  7 <resample> 007   <lm>        <tibble [7 × 5]>
##  8 <resample> 008   <lm>        <tibble [7 × 5]>
##  9 <resample> 009   <lm>        <tibble [7 × 5]>
## 10 <resample> 010   <lm>        <tibble [7 × 5]>
## # … with 90 more rows
…
list_mods <- tidied %>% 
    pull(tidy_lm)

list_mods is a list of the tidy_lm data frames. I now add an index and
bind the rows together (by using map2_df() instead of map2()):

mods_df <- map2_df(list_mods, 
                   seq(1, resamples), 
                   ~mutate(.x, resample = .y))

Let’s take a look at the final object:

head(mods_df, 25)

## # A tibble: 25 x 6
##    term              estimate std.error statistic  p.value resample
##    <chr>                <dbl>     <dbl>     <dbl>    <dbl>    <int>
##  1 (Intercept)       -571.     109.        -5.22  4.92e- 6        1
##  2 regionnortheast    -48.0     17.2       -2.80  7.71e- 3        1
##  3 regionsouth        -21.3     15.1       -1.41  1.66e- 1        1
##  4 regionwest           1.88    13.9        0.135 8.93e- 1        1
##  5 residents           -0.134    0.0608    -2.21  3.28e- 2        1
##  6 young_residents      1.50     0.308      4.89  1.47e- 5        1
##  7 per_capita_income    0.100    0.0125     8.06  3.85e-10        1
##  8 (Intercept)        -97.2    145.        -0.672 5.05e- 1        2
##  9 regionnortheast     -1.48    10.8       -0.136 8.92e- 1        2
## 10 regionsouth         12.5     11.4        1.09  2.82e- 1        2
## # … with 15 more rows
…
