How to basic: bar plots - Econometrics and Free Software
…
Counting by year as well:

(
  counts_marital_race_year <- gss_cat %>%
    mutate(marital = fct_lump(marital, prop = 0.1)) %>%
    count(year, marital, race) %>%
    ungroup()
)

## # A tibble: 96 x 4
##     year marital       race      n
##  * <int> <fct>         <fct> <int>
##  1  2000 Never married Other    60
##  2  2000 Never married Black   157
##  3  2000 Never married White   495
##  4  2000 Divorced      Other    20
##  5  2000 Divorced      Black    60
##  6  2000 Divorced      White   361
##  7  2000 Married       Other    78
##  8  2000 Married       Black   121
##  9  2000 Married       White  1079
## 10  2000 Other         Other    17
## # … with 86 more rows
…
Now let’s focus on the variable tvhours. We want to show the total watched hours, but also
the total across all the categories of race and marital in a faceted bar plot:

(
  total_tv <- gss_cat %>%
    group_by(year, race, marital) %>%
    summarise(total_tv = sum(tvhours, na.rm = TRUE))
)

## # A tibble: 127 x 4
## # Groups:   year, race [24]
##     year race  marital       total_tv
##    <int> <fct> <fct>            <int>
##  1  2000 Other No answer            2
##  2  2000 Other Never married      103
##  3  2000 Other Separated           16
##  4  2000 Other Divorced            17
##  5  2000 Other Widowed             24
##  6  2000 Other Married            122
##  7  2000 Black Never married      452
##  8  2000 Black Separated          135
##  9  2000 Black Divorced           156
## 10  2000 Black Widowed            183
## # … with 117 more rows
…
