The year of the GNU+Linux desktop is upon us: using user ratings of Steam Play compatibility to play around with regex and the tidyverse - Econometrics and Free Software
…
Let’s count how many unique games are in the data:

steam %>%
    count(Game)

## # A tibble: 3,855 x 2
##    Game                                                                   n
##    <chr>                                                              <int>
##  1 .hack//G.U. Last Recode                                                2
##  2 $1 Ride                                                                1
##  3 0rbitalis                                                              1
##  4 10 Second Ninja                                                        4
##  5 100% Orange Juice                                                     17
##  6 1000 Amps                                                              3
##  7 12 Labours of Hercules VII: Fleecing the Fleece (Platinum Edition)     1
##  8 16bit trader                                                           1
##  9 1849                                                                   1
## 10 1953 - KGB Unleased                                                    1
## # … with 3,845 more rows
…
More games run like Garbage than Platinum. But perhaps we can dig a little deeper and see if
we find some patterns.

Let’s take a look at the GNU+Linux distros:

steam %>%
    count(Distro) 

## # A tibble: 2,085 x 2
##    Distro                                         n
##    <chr>                                      <int>
##  1 <NA>                                           1
##  2 ?                                              2
##  3 "\"Arch Linux\" (64 bit)"                      1
##  4 "\"Linux Mint 18.3 Sylvia 64bit"               1
##  5 "\"Manjaro Stable 64-bit (Kernel 4.14.66)"     1
##  6 "\"Solus\" (64 bit)"                           2
##  7 (K)ubuntu 18.04 64-bit (Kernel 4.15.0)         2
##  8 (L)Ubuntu 18.04.1 LTS                          1
##  9 18.04.1                                        1
## 10 18.04.1 LTS                                    2
## # … with 2,075 more rows
…
