Data frame columns as arguments to dplyr functions - Econometrics and Free Software
…
Error: unknown variable to group by : col_name 

So how can you pass a column name to group_by()? Well, there is another version of group_by() called group_by_() that uses standard evaluation. You can learn more about it here. Let’s take a look at what happens when we use group_by_():

simpleFunction <- function(dataset, col_name){
  require("dplyr")
  dataset %>% 
    group_by_(col_name) %>%
    summarise(mean_speed = mean(speed)) -> dataset
  return(dataset)
}

simpleFunction(cars, "dist")

## # A tibble: 35 x 2
##     dist mean_speed
##    <dbl>      <dbl>
## 1      2        4.0
## 2      4        7.0
## 3     10        6.5
## 4     14       12.0
## 5     16        8.0
## 6     17       11.0
## 7     18       10.0
## 8     20       13.5
## 9     22        7.0
## 10    24       12.0
## # ... with 25 more rows

We can even use a formula instead of a string:

simpleFunction(cars, ~dist)

## # A tibble: 35 x 2
##     dist mean_speed
##    <dbl>      <dbl>
## 1      2        4.0
## 2      4        7.0
## 3     10        6.5
## 4     14       12.0
## 5     16        8.0
## 6     17       11.0
## 7     18       10.0
## 8     20       13.5
## 9     22        7.0
## 10    24       12.0
## # ... with 25 more rows
…
