Manipulate dates easily with {lubridate} - Econometrics and Free Software
…
This dataset was scraped from the following Wikipedia table.
It shows when African countries gained independence from which colonial powers. In Chapter 11, I
will show you how to scrape Wikipedia pages using R. For now, let’s take a look at the contents
of the dataset:

independence

## # A tibble: 54 x 6
##    country colonial_name colonial_power independence_da… first_head_of_s…
##    <chr>   <chr>         <chr>          <chr>            <chr>           
##  1 Liberia Liberia       United States  26 July 1847     Joseph Jenkins …
##  2 South … Cape Colony … United Kingdom 31 May 1910      Louis Botha     
##  3 Egypt   Sultanate of… United Kingdom 28 February 1922 Fuad I          
##  4 Eritrea Italian Erit… Italy          10 February 1947 Haile Selassie  
##  5 Libya   British Mili… United Kingdo… 24 December 1951 Idris           
##  6 Sudan   Anglo-Egypti… United Kingdo… 1 January 1956   Ismail al-Azhari
##  7 Tunisia French Prote… France         20 March 1956    Muhammad VIII a…
##  8 Morocco French Prote… France Spain   2 March 19567 A… Mohammed V      
##  9 Ghana   Gold Coast    United Kingdom 6 March 1957     Kwame Nkrumah   
## 10 Guinea  French West … France         2 October 1958   Ahmed Sékou Tou…
## # … with 44 more rows, and 1 more variable: independence_won_through <chr>
…
"2 March 1956
7 April 1956
10 April 1958
4 January 1969"

which obviously cannot be converted by {lubridate} without further manipulation. I ignore these cases for
simplicity’s sake.

Let’s take a look at the data now:

independence

## # A tibble: 54 x 6
##    country colonial_name colonial_power independence_da… first_head_of_s…
##    <chr>   <chr>         <chr>          <date>           <chr>           
##  1 Liberia Liberia       United States  1847-07-26       Joseph Jenkins …
##  2 South … Cape Colony … United Kingdom 1910-05-31       Louis Botha     
##  3 Egypt   Sultanate of… United Kingdom 1922-02-28       Fuad I          
##  4 Eritrea Italian Erit… Italy          1947-02-10       Haile Selassie  
##  5 Libya   British Mili… United Kingdo… 1951-12-24       Idris           
##  6 Sudan   Anglo-Egypti… United Kingdo… 1956-01-01       Ismail al-Azhari
##  7 Tunisia French Prote… France         1956-03-20       Muhammad VIII a…
##  8 Morocco French Prote… France Spain   NA               Mohammed V      
##  9 Ghana   Gold Coast    United Kingdom 1957-03-06       Kwame Nkrumah   
## 10 Guinea  French West … France         1958-10-02       Ahmed Sékou Tou…
## # … with 44 more rows, and 1 more variable: independence_won_through <chr>
…
## [1] "Libya"

Seems like Libya was the only one! You can also operate on dates. For instance, let’s compute the difference between
two dates, using the interval() column:

independence %>%
  mutate(today = lubridate::today()) %>%
  mutate(independent_since = interval(independence_date, today)) %>%
  select(country, independent_since)

## # A tibble: 54 x 2
##    country      independent_since             
##    <chr>        <S4: Interval>                
##  1 Liberia      1847-07-26 UTC--2019-02-10 UTC
##  2 South Africa 1910-05-31 UTC--2019-02-10 UTC
##  3 Egypt        1922-02-28 UTC--2019-02-10 UTC
##  4 Eritrea      1947-02-10 UTC--2019-02-10 UTC
##  5 Libya        1951-12-24 UTC--2019-02-10 UTC
##  6 Sudan        1956-01-01 UTC--2019-02-10 UTC
##  7 Tunisia      1956-03-20 UTC--2019-02-10 UTC
##  8 Morocco      NA--NA                        
##  9 Ghana        1957-03-06 UTC--2019-02-10 UTC
## 10 Guinea       1958-10-02 UTC--2019-02-10 UTC
## # … with 44 more rows

The independent_since column now contains an interval object that we can convert to years:

independence %>%
  mutate(today = lubridate::today()) %>%
  mutate(independent_since = interval(independence_date, today)) %>%
  select(country, independent_since) %>%
  mutate(years_independent = as.numeric(independent_since, "years"))

## # A tibble: 54 x 3
##    country      independent_since              years_independent
##    <chr>        <S4: Interval>                             <dbl>
##  1 Liberia      1847-07-26 UTC--2019-02-10 UTC             172. 
##  2 South Africa 1910-05-31 UTC--2019-02-10 UTC             109. 
##  3 Egypt        1922-02-28 UTC--2019-02-10 UTC              97.0
##  4 Eritrea      1947-02-10 UTC--2019-02-10 UTC              72  
##  5 Libya        1951-12-24 UTC--2019-02-10 UTC              67.1
##  6 Sudan        1956-01-01 UTC--2019-02-10 UTC              63.1
##  7 Tunisia      1956-03-20 UTC--2019-02-10 UTC              62.9
##  8 Morocco      NA--NA                                      NA  
##  9 Ghana        1957-03-06 UTC--2019-02-10 UTC              61.9
## 10 Guinea       1958-10-02 UTC--2019-02-10 UTC              60.4
## # … with 44 more rows
…
